Analysis
…
Analysis

Danielle Navarro

30-Jun-2021

Aggregate level

To begin, lets import the data and examine it at an aggregate level. Heres the data:

## # A tibble: 60 x 8
##    sample_size sampling_frame test_item ci_lower ci_upper response source exp  
##          <dbl> <chr>              <dbl>    <dbl>    <dbl>    <dbl> <chr>  <chr>
##  1           2 category               1    0.484    0.613    0.548 human  exp1 
##  2           2 category               2    0.398    0.537    0.467 human  exp1 
##  3           2 category               3    0.237    0.361    0.299 human  exp1 
##  4           2 category               4    0.200    0.329    0.265 human  exp1 
##  5           2 category               5    0.205    0.329    0.267 human  exp1 
##  6           2 category               6    0.148    0.267    0.207 human  exp1 
##  7           2 property               1    0.492    0.649    0.570 human  exp1 
##  8           2 property               2    0.449    0.602    0.525 human  exp1 
##  9           2 property               3    0.254    0.376    0.315 human  exp1 
## 10           2 property               4    0.222    0.343    0.283 human  exp1 
## #  with 50 more rows
…
Overall conclusions

Some people (maybe about a third???) are sensitive to the sampling manipulation in the precise pattern we expected to see. This proportion is much higher than we would expect by chance: the model is capturing a pattern of behaviour that is fairly common

The sensitivity doesnt seem to be universal, and among people who arent sensitive, there is really not a lot of evidence to suggest an effect of frame or sample size (at least not for the distant/extrapolation items). For these people, the model as formulated by Hayes et al doesnt seem appropriate

Although crude, this classification system does seem somewhat warranted by the data. This is of some value for experiment 2, since we can compare participants on working memory capacity etc based on this categorisation. Here are the participants and the classifications I constructed:

## # A tibble: 122 x 6
##    exp      id   age gender cn_cd_pn_pd pattern_type 
##    <chr> <dbl> <dbl> <chr>  <chr>       <chr>        
##  1 exp1      1    19 female +-+-        not-sensitive
##  2 exp2      1    19 male   +++-        sensitive    
##  3 exp1      2    18 female --++        not-sensitive
##  4 exp2      2    20 female ++++        not-sensitive
##  5 exp1      3    20 female +-++        not-sensitive
##  6 exp2      3    20 female +-.+        not-sensitive
##  7 exp1      4    18 male   ++++        not-sensitive
##  8 exp2      4    20 female +++.        sensitive    
##  9 exp2      5    18 female +++-        sensitive    
## 10 exp1      6    20 female +++-        sensitive    
## #  with 112 more rows
…
